PM 566 Assignment 3
…
preelampsia: eclampsia, preeclampsia, pregnancy, maternal, and gestational.

prostate cancer: prostate, androgen, psa, prostatectomy, and castration.

While there is some overlap with the tokens for each search term in Question 1 and Question 3, the Question 3 tokens tend to be more specific to the search term and don’t include as many generic medical words (e.g., patients, disease, treatment) that show up in the Question 1 tokens. For example, while the Question 1 tokens include “patients,” “treatment,” and “disease” for the search term “prostate cancer,” the Question 3 tokens have more specific terms such as “androgen,” “psa,” “prostatectomy,” and “castration” that are more related and can give more particular insight about this medical disease compared to the other words such as “patients.”

Sentiment Analysis

Perform a sentiment analysis using the NRC lexicon. What is the most common sentiment for each search term? What if you remove "positive" and "negative" from the list?

# NRC lexicon
get_sentiments('nrc')

# A tibble: 13,872 × 2
   word        sentiment
   <chr>       <chr>    
 1 abacus      trust    
 2 abandon     fear     
 3 abandon     negative 
 4 abandon     sadness  
 5 abandoned   anger    
 6 abandoned   fear     
 7 abandoned   negative 
 8 abandoned   sadness  
 9 abandonment anger    
10 abandonment fear     
# ℹ 13,862 more rows
…
The most common positive terms are “covid,” “cystic fibrosis,” and “preeclampsia.” The most common negative terms are “meningitis” and “prostate cancer.”

When “positive” and “negative” are removed from the sentiments, the top sentiments are fear (“covid,” “meningitis,” and “prostate cancer”), disgust (“cystic fibrosis”), and anticipation (“preeclampsia”).

Now perform a sentiment analysis using the AFINN lexicon to get an average positivity score for each abstract (hint: you may want to create a variable that indexes, or counts, the abstracts). Create a visualization that shows these scores grouped by search term. Are any search terms noticeably different from the others?

# AFinn lexicon
get_sentiments('afinn')

# A tibble: 2,477 × 2
   word       value
   <chr>      <dbl>
 1 abandon       -2
 2 abandoned     -2
 3 abandons      -2
 4 abducted      -2
 5 abduction     -2
 6 abductions    -2
 7 abhor         -3
 8 abhorred      -3
 9 abhorrent     -3
10 abhors        -3
# ℹ 2,467 more rows
…
